newmtl Bush1:lambert5SG
illum 4
Kd 0.00 0.00 0.00
Ka 0.00 0.00 0.00
Tf 1.00 1.00 1.00
map_Kd leaf_02.png
Ni 1.00
newmtl Bush2:lambert3SG
illum 4
Kd 0.00 0.00 0.00
Ka 0.00 0.00 0.00
Tf 1.00 1.00 1.00
map_Kd leaf_01.png
Ni 1.00
newmtl CylinderSG
illum 4
Kd 0.16 0.14 0.12
Ka 0.00 0.00 0.00
Tf 1.00 1.00 1.00
Ni 1.00
Ks 0.04 0.04 0.03
Ns 23.00
newmtl PlaneFBXASC046007SG
illum 4
Kd 0.08 0.17 0.07
Ka 0.00 0.00 0.00
Tf 1.00 1.00 1.00
Ni 1.00
Ks 0.02 0.04 0.02
Ns 23.00
newmtl SphereFBXASC046004SG
illum 4
Kd 0.51 0.67 0.17
Ka 0.00 0.00 0.00
Tf 1.00 1.00 1.00
Ni 1.00
Ks 0.13 0.17 0.04
Ns 23.00
newmtl blinn1SG
illum 4
Kd 0.00 0.00 0.00
Ka 0.00 0.00 0.00
Tf 1.00 1.00 1.00
map_Kd palm_stem_palm_stem_BaseColor.png
bump palm_stem_palm_stem_Normal.png -bm 1
Ni 1.00
Ks 0.50 0.50 0.50
newmtl blinn2SG
illum 4
Kd 0.00 0.00 0.00
Ka 0.00 0.00 0.00
Tf 1.00 1.00 1.00
map_Kd palm_leaf.png
Ni 1.00
newmtl blinn3SG
illum 4
Kd 0.00 0.00 0.00
Ka 0.00 0.00 0.00
Tf 1.00 1.00 1.00
map_Kd coconuts_coconuts_BaseColor.png
bump coconuts_coconuts_Normal.png -bm 1
Ni 1.00
Ks 0.50 0.50 0.50
newmtl fern_tree:Fern_Tree_texture
illum 4
Kd 0.00 0.00 0.00
Ka 0.00 0.00 0.00
Tf 1.00 1.00 1.00
map_Kd fern_tree_diffuse.png
map_Ka fern_tree_diffuse.png
Ni 1.50
newmtl lambert3SG
illum 4
Kd 0.00 0.00 0.00
Ka 0.00 0.00 0.00
Tf 1.00 1.00 1.00
map_Kd palm_leaf2.png
Ni 1.00
newmtl lambert6SG
illum 4
Kd 0.00 0.00 0.00
Ka 0.00 0.00 0.00
Tf 1.00 1.00 1.00
map_Kd Hyophorbe_lagenicaulis_dif.jpg
Ni 1.00
newmtl lambert7SG
illum 4
Kd 0.00 0.00 0.00
Ka 0.00 0.00 0.00
Tf 1.00 1.00 1.00
map_Kd texture_palm_128x128.tga
Ni 1.00
newmtl lambert9SG
illum 4
Kd 0.00 0.00 0.00
Ka 0.00 0.00 0.00
Tf 1.00 1.00 1.00
map_Kd -s 0.333333 0.333333 Fine_Sand_Albedo.jpg
bump -s 0.2 0.2 Fine_Sand_Normal.jpg -bm 1
Ni 1.00
newmtl pPlane5SG
illum 4
Kd 0.00 0.00 0.00
Ka 0.00 0.00 0.00
Tf 1.00 1.00 1.00
map_Kd bush_PNG7214.png
Ni 1.00
newmtl phong1SG
illum 4
Kd 0.08 0.20 0.73
Ka 0.00 0.00 0.00
Tf 1.00 1.00 1.00
Ni 1.00
Ks 0.50 0.50 0.50
Ns 18.00
