newmtl Rock:Rock
illum 4
Kd 0.00 0.00 0.00
Ka 0.00 0.00 0.00
Tf 1.00 1.00 1.00
map_Kd Rock_LowPoly_Diffuse.png
bump Rock_LowPoly_NormalDX.png -bm 1
Ni 1.00
Ks 0.04 0.04 0.04
Ns 256.00
newmtl SM_SeaweedA_37_LOD0SG
illum 4
Kd 0.00 0.00 0.00
Ka 0.00 0.00 0.00
Tf 1.00 1.00 1.00
map_Kd T_Seaweed_BC.TGA
Ni 1.00
newmtl SM_SeaweedB_40_LOD0SG
illum 4
Kd 0.00 0.00 0.00
Ka 0.00 0.00 0.00
Tf 1.00 1.00 1.00
map_Kd T_Seaweed_BC.TGA
Ni 1.00
newmtl SM_SeaweedC_43_LOD0SG
illum 4
Kd 0.00 0.00 0.00
Ka 0.00 0.00 0.00
Tf 1.00 1.00 1.00
map_Kd T_Seaweed_BC.TGA
Ni 1.00
newmtl SeaweedE:Game_OceanFloor_Materials_M_Seaweed_M_Seaweed
illum 4
Kd 0.00 0.00 0.00
Ka 0.00 0.00 0.00
Tf 1.00 1.00 1.00
map_Kd T_Seaweed_BC.TGA
bump T_SeaWeed_N.TGA -bm 1
Ni 1.00
Ks 0.50 0.50 0.50
Ns 18.00
newmtl SpongeB:Game_OceanFloor_Materials_M_SpongeOrange_M_SpongeOrange
illum 4
Kd 0.00 0.00 0.00
Ka 0.00 0.00 0.00
Tf 1.00 1.00 1.00
map_Kd T_Sponge_BC.TGA
bump T_Sponge_N.TGA -bm 1
Ni 1.00
Ks 0.50 0.50 0.50
Ns 18.00
newmtl TropicalFish01:___Default
illum 4
Kd 0.00 0.00 0.00
Ka 0.00 0.00 0.00
Tf 1.00 1.00 1.00
map_Kd TropicalFish01.jpg
Ni 1.50
Ks 0.00 0.00 0.00
Ns 10.00
newmtl TropicalFish05:___Default
illum 4
Kd 0.00 0.00 0.00
Ka 0.00 0.00 0.00
Tf 1.00 1.00 1.00
map_Kd TropicalFish05.jpg
Ni 1.50
Ks 0.00 0.00 0.00
Ns 10.00
newmtl TropicalFish06:___Default
illum 4
Kd 0.00 0.00 0.00
Ka 0.00 0.00 0.00
Tf 1.00 1.00 1.00
map_Kd TropicalFish06.jpg
Ni 1.50
Ks 0.00 0.00 0.00
Ns 10.00
newmtl TropicalFish08:___Default
illum 4
Kd 0.00 0.00 0.00
Ka 0.00 0.00 0.00
Tf 1.00 1.00 1.00
map_Kd TropicalFish08.jpg
Ni 1.50
Ks 0.00 0.00 0.00
Ns 10.00
newmtl TropicalFish09:___Default
illum 4
Kd 0.00 0.00 0.00
Ka 0.00 0.00 0.00
Tf 1.00 1.00 1.00
map_Kd TropicalFish09.jpg
Ni 1.50
Ks 0.00 0.00 0.00
Ns 10.00
newmtl TropicalFish12:___Default
illum 4
Kd 0.00 0.00 0.00
Ka 0.00 0.00 0.00
Tf 1.00 1.00 1.00
map_Kd TropicalFish12.jpg
Ni 1.50
Ks 0.00 0.00 0.00
Ns 10.00
newmtl TropicalFish13:___Default
illum 4
Kd 0.00 0.00 0.00
Ka 0.00 0.00 0.00
Tf 1.00 1.00 1.00
map_Kd TropicalFish13.jpg
Ni 1.50
Ks 0.00 0.00 0.00
Ns 10.00
newmtl Try:Game_OceanFloor_Materials_M_URockC_M_URockC
illum 4
Kd 0.00 0.00 0.00
Ka 0.00 0.00 0.00
Tf 1.00 1.00 1.00
map_Kd FExportMaterialRenderer M_URockC-mat0-prop5.bmp
bump FExportMaterialRenderer M_URockC-mat0-prop9.bmp -bm 1
Ni 1.00
newmtl Try:Game_OceanFloor_Materials_M_URockD_M_URockD
illum 4
Kd 0.00 0.00 0.00
Ka 0.40 0.40 0.40
Tf 1.00 1.00 1.00
map_Kd FExportMaterialRenderer M_URockD-mat0-prop5.bmp
bump FExportMaterialRenderer M_URockD-mat0-prop9.bmp -bm 0
Ni 1.00
newmtl Try:Game_OceanFloor_Materials_M_URockE_M_URockE
illum 4
Kd 0.00 0.00 0.00
Ka 0.40 0.40 0.40
Tf 1.00 1.00 1.00
map_Kd FExportMaterialRenderer M_URockE-mat0-prop5.bmp
Ni 1.00
newmtl initialShadingGroup
illum 4
Kd 0.50 0.50 0.50
Ka 0.00 0.00 0.00
Tf 1.00 1.00 1.00
Ni 1.00
newmtl lambert2SG
illum 4
Kd 0.00 0.00 0.00
Ka 0.00 0.00 0.00
Tf 1.00 1.00 1.00
map_Kd TropicalFish14.jpg
Ni 1.00
newmtl lambert3SG
illum 4
Kd 0.00 0.00 0.00
Ka 0.00 0.00 0.00
Tf 1.00 1.00 1.00
map_Kd greatwhiteshark.tga
bump greatwhiteshark_n.tga -bm 1
Ni 1.00
newmtl lambert4SG
illum 4
Kd 0.00 0.00 0.00
Ka 0.00 0.00 0.00
Tf 1.00 1.00 1.00
map_Kd greatwhiteshark_Eye.tga
bump greatwhiteshark_Eye_n.tga -bm 1
Ni 1.00
newmtl lambert5SG
illum 4
Kd 0.00 0.00 0.00
Ka 0.00 0.00 0.00
Tf 1.00 1.00 1.00
map_Kd T_RedAlgae_BC.TGA
bump T_RedAlgae_N.TGA -bm 1
Ni 1.00
