# This file uses centimeters as units for non-parametric coordinates.

mtllib Yellow_Block.mtl
v 7.904592 2.848354 1.000000
v 9.732623 2.848354 1.000000
v 7.904592 4.646098 1.000000
v 9.732623 4.646098 1.000000
v 7.904592 4.743334 0.943999
v 9.732623 4.743334 0.943999
v 7.904592 4.743334 -0.948104
v 9.732623 4.743334 -0.948104
v 7.904592 4.646098 -1.000000
v 9.732623 4.646098 -1.000000
v 7.904592 2.848354 -1.000000
v 9.732623 2.848354 -1.000000
v 7.904592 2.743334 -0.948104
v 9.732623 2.743334 -0.948104
v 7.904592 2.743334 0.943999
v 9.732623 2.743334 0.943999
v 9.814152 2.848354 -0.948104
v 9.814152 2.848354 0.943999
v 9.814152 4.646098 -0.948104
v 9.814152 4.646098 0.943999
v 7.814152 2.848354 -0.948104
v 7.814152 2.848354 0.943999
v 7.814152 4.646098 -0.948104
v 7.814152 4.646098 0.943999
v 7.840098 2.743334 0.974055
v 7.840098 2.769279 1.000000
v 7.814152 2.769279 0.974055
v 7.904592 2.769279 1.000000
v 7.904592 2.743334 0.974055
v 9.732623 2.769279 1.000000
v 9.732623 2.743334 0.974055
v 9.814152 2.769279 0.974055
v 9.788207 2.769279 1.000000
v 9.788207 2.743334 0.974055
v 7.814152 4.717388 0.974055
v 7.840098 4.717388 1.000000
v 7.840098 4.743334 0.974055
v 7.904592 4.717388 1.000000
v 7.904592 4.743334 0.974055
v 9.732623 4.717388 1.000000
v 9.732623 4.743334 0.974055
v 9.788207 4.743334 0.974055
v 9.788207 4.717388 1.000000
v 9.814152 4.717388 0.974055
v 7.814152 4.717388 -0.974055
v 7.840098 4.743334 -0.974055
v 7.840098 4.717388 -1.000000
v 7.904592 4.743334 -0.974055
v 7.904592 4.717388 -1.000000
v 9.732623 4.743334 -0.974055
v 9.732623 4.717388 -1.000000
v 9.788207 4.717388 -1.000000
v 9.788207 4.743334 -0.974055
v 9.814152 4.717388 -0.974055
v 7.814152 2.769279 -0.974055
v 7.840098 2.769279 -1.000000
v 7.840098 2.743334 -0.974055
v 7.904592 2.769279 -1.000000
v 7.904592 2.743334 -0.974055
v 9.732623 2.769279 -1.000000
v 9.732623 2.743334 -0.974055
v 9.788207 2.743334 -0.974055
v 9.788207 2.769279 -1.000000
v 9.814152 2.769279 -0.974055
v 7.840098 2.848354 1.000000
v 7.814152 2.848354 0.974055
v 9.788207 2.848354 1.000000
v 9.814152 2.848354 0.974055
v 7.840098 4.646098 1.000000
v 7.814152 4.646098 0.974055
v 9.788207 4.646098 1.000000
v 9.814152 4.646098 0.974055
v 7.840098 4.743334 0.943999
v 7.814152 4.717388 0.943999
v 9.788207 4.743334 0.943999
v 9.814152 4.717388 0.943999
v 7.840098 4.743334 -0.948104
v 7.814152 4.717388 -0.948104
v 9.788207 4.743334 -0.948104
v 9.814152 4.717388 -0.948104
v 7.840098 4.646098 -1.000000
v 7.814152 4.646098 -0.974055
v 9.788207 4.646098 -1.000000
v 9.814152 4.646098 -0.974055
v 7.840098 2.848354 -1.000000
v 7.814152 2.848354 -0.974055
v 9.788207 2.848354 -1.000000
v 9.814152 2.848354 -0.974055
v 7.840098 2.743334 -0.948104
v 7.814152 2.769279 -0.948104
v 9.788207 2.743334 -0.948104
v 9.814152 2.769279 -0.948104
v 7.840098 2.743334 0.943999
v 7.814152 2.769279 0.943999
v 9.788207 2.743334 0.943999
v 9.814152 2.769279 0.943999
vt 0.053251 0.088508
vt 0.940773 0.088738
vt 0.940773 0.919778
vt 0.053251 0.920004
vt 0.021938 0.050179
vt 0.021938 0.032894
vt 0.053251 0.028621
vt 0.053251 0.047663
vt 0.009342 0.048674
vt 0.021938 0.088390
vt 0.009342 0.088363
vt 0.940773 0.028863
vt 0.940773 0.047902
vt 0.967760 0.032919
vt 0.967760 0.050159
vt 0.980356 0.048659
vt 0.980356 0.088592
vt 0.967760 0.088624
vt 0.021938 0.954326
vt 0.009342 0.955935
vt 0.009342 0.920143
vt 0.021938 0.920114
vt 0.021938 0.971623
vt 0.053251 0.956842
vt 0.053251 0.975887
vt 0.940773 0.956612
vt 0.940773 0.975654
vt 0.967760 0.954333
vt 0.967760 0.971591
vt 0.980356 0.955938
vt 0.967760 0.919885
vt 0.980356 0.919917
vt 0.908749 0.097892
vt 0.908749 0.902108
vt 0.087050 0.097892
vt 0.087050 0.902108
vt 0.969504 0.922266
vt 0.026405 0.922266
vt 0.026405 0.077585
vt 0.969504 0.077585
vt 0.011423 0.976657
vt 0.011423 0.959419
vt 0.026405 0.959418
vt 0.026405 0.976658
vt 0.011423 0.044089
vt 0.011423 0.026846
vt 0.026404 0.026847
vt 0.026404 0.044088
vt 0.982438 0.026846
vt 0.982438 0.044089
vt 0.969504 0.044088
vt 0.969504 0.026847
vt 0.982438 0.959419
vt 0.982438 0.976657
vt 0.969504 0.976658
vt 0.969504 0.959418
vt 0.982438 0.922266
vt 0.011423 0.922266
vt 0.982438 0.077585
vt 0.011423 0.077585
vt 0.908749 0.097892
vt 0.908749 0.902108
vt 0.087050 0.097892
vt 0.087050 0.902108
vt 0.053251 0.086655
vt 0.940773 0.087351
vt 0.940773 0.917878
vt 0.053251 0.918578
vt 0.009342 0.050718
vt 0.021938 0.052327
vt 0.021938 0.086548
vt 0.009342 0.086520
vt 0.021938 0.035039
vt 0.053251 0.030772
vt 0.053251 0.049817
vt 0.940773 0.031479
vt 0.940773 0.050521
vt 0.967760 0.035486
vt 0.967760 0.052753
vt 0.980356 0.051120
vt 0.980356 0.087211
vt 0.967760 0.087243
vt 0.021938 0.956887
vt 0.009342 0.958369
vt 0.009342 0.918722
vt 0.021938 0.918697
vt 0.021938 0.974155
vt 0.053251 0.959426
vt 0.053251 0.978469
vt 0.940773 0.958721
vt 0.940773 0.977760
vt 0.967760 0.956493
vt 0.967760 0.973734
vt 0.980356 0.958006
vt 0.967760 0.917997
vt 0.980356 0.918026
vt 0.908749 0.097892
vt 0.908749 0.902108
vt 0.087050 0.097892
vt 0.087050 0.902108
vt 0.025858 0.080026
vt 0.968957 0.080026
vt 0.968957 0.924697
vt 0.025858 0.924697
vt 0.010877 0.042876
vt 0.010877 0.025632
vt 0.025858 0.025634
vt 0.025858 0.042874
vt 0.010877 0.975434
vt 0.010877 0.958194
vt 0.025858 0.958194
vt 0.025858 0.975434
vt 0.981891 0.958194
vt 0.981891 0.975434
vt 0.968957 0.975434
vt 0.968957 0.958194
vt 0.981891 0.025632
vt 0.981891 0.042876
vt 0.968957 0.042874
vt 0.968957 0.025634
vt 0.981891 0.080025
vt 0.010877 0.080025
vt 0.981891 0.924697
vt 0.010877 0.924697
vt 0.087050 0.097892
vt 0.087050 0.902108
vt 0.908749 0.097892
vt 0.908749 0.902108
vt 0.045583 0.049919
vt 0.956746 0.049919
vt 0.956746 0.965975
vt 0.045583 0.965975
vt 0.013437 0.035367
vt 0.045583 0.035367
vt 0.013437 0.049919
vt 0.956746 0.035367
vt 0.984452 0.035367
vt 0.984452 0.049919
vt 0.013437 0.965975
vt 0.984452 0.965975
vt 0.045583 0.978539
vt 0.013437 0.978539
vt 0.956746 0.978539
vt 0.984452 0.978539
vt 0.908749 0.097892
vt 0.908749 0.902108
vt 0.087050 0.097892
vt 0.087050 0.902108
vt 0.045388 0.048465
vt 0.956551 0.048465
vt 0.956551 0.964520
vt 0.045388 0.964520
vt 0.013241 0.035902
vt 0.045388 0.035902
vt 0.013241 0.048465
vt 0.956551 0.035902
vt 0.984256 0.035902
vt 0.984256 0.048465
vt 0.013241 0.964520
vt 0.984256 0.964520
vt 0.045388 0.979071
vt 0.013241 0.979071
vt 0.956551 0.979071
vt 0.984256 0.979071
vt 0.908749 0.097892
vt 0.908749 0.902108
vt 0.087050 0.097892
vt 0.087050 0.902108
vn 0.000000 0.000000 1.000000
vn 0.000000 0.000000 1.000000
vn 0.000000 0.000000 1.000000
vn 0.000000 0.000000 1.000000
vn 0.000000 1.000000 0.000000
vn 0.000000 1.000000 0.000000
vn 0.000000 1.000000 0.000000
vn 0.000000 1.000000 0.000000
vn 0.000000 0.000000 -1.000000
vn 0.000000 0.000000 -1.000000
vn 0.000000 0.000000 -1.000000
vn 0.000000 0.000000 -1.000000
vn 0.000000 -1.000000 0.000000
vn 0.000000 -1.000000 0.000000
vn 0.000000 -1.000000 0.000000
vn 0.000000 -1.000000 0.000000
vn 1.000000 0.000000 0.000000
vn 1.000000 0.000000 0.000000
vn 1.000000 0.000000 0.000000
vn 1.000000 0.000000 0.000000
vn -1.000000 0.000000 0.000000
vn -1.000000 0.000000 0.000000
vn -1.000000 -0.000000 0.000000
vn -1.000000 -0.000000 0.000000
vn -0.707107 -0.707107 0.000000
vn -0.707107 -0.707107 0.000000
vn -0.707107 -0.707107 0.000000
vn -0.707107 -0.707107 0.000000
vn 0.000000 -0.707107 0.707106
vn 0.000000 -0.707107 0.707106
vn 0.000000 -0.707107 0.707107
vn 0.000000 -0.707107 0.707107
vn -0.707106 0.000000 0.707107
vn -0.707106 0.000000 0.707107
vn -0.707107 0.000000 0.707107
vn -0.707107 0.000000 0.707107
vn 0.000000 -0.707107 0.707107
vn 0.000000 -0.707107 0.707107
vn 0.000000 -0.707107 0.707106
vn 0.000000 -0.707107 0.707106
vn 0.707107 -0.707107 0.000000
vn 0.707107 -0.707107 0.000000
vn 0.707107 -0.707107 0.000000
vn 0.707107 -0.707107 0.000000
vn 0.707106 0.000000 0.707107
vn 0.707106 0.000000 0.707107
vn 0.707107 0.000000 0.707107
vn 0.707107 0.000000 0.707107
vn -0.707114 0.707100 0.000000
vn -0.707114 0.707100 0.000000
vn -0.707113 0.707100 0.000000
vn -0.707113 0.707100 0.000000
vn -0.707106 0.000000 0.707107
vn -0.707106 0.000000 0.707107
vn -0.707107 0.000000 0.707107
vn -0.707107 0.000000 0.707107
vn 0.000000 0.707101 0.707113
vn 0.000000 0.707101 0.707113
vn 0.000000 0.707100 0.707114
vn 0.000000 0.707100 0.707114
vn 0.000000 0.707100 0.707114
vn 0.000000 0.707100 0.707114
vn 0.000000 0.707100 0.707114
vn 0.000000 0.707100 0.707114
vn 0.707114 0.707100 0.000000
vn 0.707114 0.707100 0.000000
vn 0.707113 0.707100 0.000000
vn 0.707113 0.707100 0.000000
vn 0.707106 0.000000 0.707107
vn 0.707106 0.000000 0.707107
vn 0.707107 0.000000 0.707107
vn 0.707107 0.000000 0.707107
vn -0.707106 0.000000 -0.707107
vn -0.707106 0.000000 -0.707107
vn -0.707107 0.000000 -0.707107
vn -0.707107 0.000000 -0.707107
vn -0.707114 0.707100 0.000000
vn -0.707114 0.707100 0.000000
vn -0.707113 0.707100 0.000000
vn -0.707113 0.707100 0.000000
vn 0.000000 0.707101 -0.707113
vn 0.000000 0.707101 -0.707113
vn 0.000000 0.707100 -0.707114
vn 0.000000 0.707100 -0.707114
vn 0.000000 0.707100 -0.707114
vn 0.000000 0.707100 -0.707114
vn 0.000000 0.707100 -0.707114
vn 0.000000 0.707100 -0.707114
vn 0.707106 0.000000 -0.707107
vn 0.707106 0.000000 -0.707107
vn 0.707107 0.000000 -0.707107
vn 0.707107 0.000000 -0.707107
vn 0.707114 0.707100 0.000000
vn 0.707114 0.707100 0.000000
vn 0.707113 0.707100 0.000000
vn 0.707113 0.707100 0.000000
vn -0.707107 -0.707107 0.000000
vn -0.707107 -0.707107 0.000000
vn -0.707107 -0.707107 0.000000
vn -0.707107 -0.707107 0.000000
vn -0.707107 0.000000 -0.707106
vn -0.707107 0.000000 -0.707106
vn -0.707107 0.000000 -0.707107
vn -0.707107 0.000000 -0.707107
vn 0.000000 -0.707107 -0.707106
vn 0.000000 -0.707107 -0.707106
vn 0.000000 -0.707107 -0.707107
vn 0.000000 -0.707107 -0.707107
vn 0.000000 -0.707107 -0.707107
vn 0.000000 -0.707107 -0.707107
vn 0.000000 -0.707107 -0.707106
vn 0.000000 -0.707107 -0.707106
vn 0.707107 -0.707107 0.000000
vn 0.707107 -0.707107 0.000000
vn 0.707107 -0.707107 0.000000
vn 0.707107 -0.707107 0.000000
vn 0.707107 0.000000 -0.707106
vn 0.707107 0.000000 -0.707106
vn 0.707107 0.000000 -0.707107
vn 0.707107 0.000000 -0.707107
vn 0.000000 0.000000 1.000000
vn 0.000000 0.000000 1.000000
vn 0.000000 0.000000 1.000000
vn 0.000000 0.000000 1.000000
vn 0.000000 0.000000 1.000000
vn 0.000000 0.000000 1.000000
vn 0.000000 0.000000 1.000000
vn 0.000000 0.000000 1.000000
vn 0.000000 0.000000 1.000000
vn 0.000000 0.000000 1.000000
vn 0.000000 0.000000 1.000000
vn 0.000000 0.000000 1.000000
vn 0.000000 1.000000 0.000000
vn 0.000000 1.000000 0.000000
vn 0.000000 1.000000 0.000000
vn 0.000000 1.000000 0.000000
vn 0.000000 1.000000 0.000000
vn 0.000000 1.000000 0.000000
vn 0.000000 1.000000 0.000000
vn 0.000000 1.000000 0.000000
vn 0.000000 1.000000 0.000000
vn 0.000000 1.000000 0.000000
vn 0.000000 1.000000 0.000000
vn 0.000000 1.000000 0.000000
vn 0.000000 0.000000 -1.000000
vn 0.000000 0.000000 -1.000000
vn 0.000000 0.000000 -1.000000
vn 0.000000 0.000000 -1.000000
vn 0.000000 0.000000 -1.000000
vn 0.000000 0.000000 -1.000000
vn 0.000000 0.000000 -1.000000
vn 0.000000 0.000000 -1.000000
vn 0.000000 0.000000 -1.000000
vn 0.000000 0.000000 -1.000000
vn 0.000000 0.000000 -1.000000
vn 0.000000 0.000000 -1.000000
vn 0.000000 -1.000000 0.000000
vn 0.000000 -1.000000 0.000000
vn 0.000000 -1.000000 0.000000
vn 0.000000 -1.000000 0.000000
vn 0.000000 -1.000000 0.000000
vn 0.000000 -1.000000 0.000000
vn 0.000000 -1.000000 0.000000
vn 0.000000 -1.000000 0.000000
vn 0.000000 -1.000000 0.000000
vn 0.000000 -1.000000 0.000000
vn 0.000000 -1.000000 0.000000
vn 0.000000 -1.000000 0.000000
vn 1.000000 0.000000 0.000000
vn 1.000000 0.000000 0.000000
vn 1.000000 0.000000 0.000000
vn 1.000000 0.000000 0.000000
vn 1.000000 0.000000 0.000000
vn 1.000000 0.000000 0.000000
vn 1.000000 0.000000 0.000000
vn 1.000000 0.000000 0.000000
vn 1.000000 0.000000 0.000000
vn 1.000000 0.000000 0.000000
vn 1.000000 0.000000 0.000000
vn 1.000000 0.000000 0.000000
vn -1.000000 0.000000 0.000000
vn -1.000000 0.000000 0.000000
vn -1.000000 0.000000 0.000000
vn -1.000000 0.000000 0.000000
vn -1.000000 0.000000 0.000000
vn -1.000000 0.000000 0.000000
vn -1.000000 0.000000 0.000000
vn -1.000000 0.000000 0.000000
vn -1.000000 -0.000000 0.000000
vn -1.000000 0.000000 0.000000
vn -1.000000 -0.000000 0.000000
vn -1.000000 0.000000 0.000000
vn -0.577350 -0.577350 0.577350
vn -0.577350 -0.577350 0.577350
vn -0.577350 -0.577350 0.577350
vn 0.577350 -0.577350 0.577350
vn 0.577350 -0.577350 0.577350
vn 0.577350 -0.577350 0.577350
vn -0.577356 0.577343 0.577352
vn -0.577356 0.577343 0.577352
vn -0.577356 0.577343 0.577352
vn 0.577356 0.577343 0.577352
vn 0.577356 0.577343 0.577352
vn 0.577356 0.577343 0.577352
vn -0.577356 0.577343 -0.577352
vn -0.577356 0.577343 -0.577352
vn -0.577356 0.577343 -0.577352
vn 0.577356 0.577343 -0.577352
vn 0.577356 0.577343 -0.577352
vn 0.577356 0.577343 -0.577352
vn -0.577350 -0.577350 -0.577350
vn -0.577350 -0.577350 -0.577350
vn -0.577350 -0.577350 -0.577350
vn 0.577350 -0.577350 -0.577350
vn 0.577350 -0.577350 -0.577350
vn 0.577350 -0.577350 -0.577350
usemtl blinn1SG
f 1/35/1 2/33/2 4/34/3 3/36/4
f 5/147/5 6/145/6 8/146/7 7/148/8
f 9/99/9 10/97/10 12/98/11 11/100/12
f 13/167/13 14/165/14 16/166/15 15/168/16
f 18/125/17 17/127/18 19/128/19 20/126/20
f 21/63/21 22/61/22 24/62/23 23/64/24
usemtl blinn2SG
f 25/41/25 27/42/26 94/43/27 93/44/28
f 26/5/29 25/6/30 29/7/31 28/8/32
f 27/9/33 26/5/34 65/10/35 66/11/36
f 28/8/32 29/7/31 31/12/37 30/13/38
f 30/13/38 31/12/37 34/14/39 33/15/40
f 32/105/41 34/106/42 95/107/43 96/108/44
f 33/15/45 32/16/46 68/17/47 67/18/48
f 35/45/49 37/46/50 73/47/51 74/48/52
f 36/19/53 35/20/54 70/21/55 69/22/56
f 37/23/57 36/19/58 38/24/59 39/25/60
f 39/25/60 38/24/59 40/26/61 41/27/62
f 41/27/62 40/26/61 43/28/63 42/29/64
f 42/109/65 44/110/66 76/111/67 75/112/68
f 44/30/69 43/28/70 71/31/71 72/32/72
f 45/69/73 47/70/74 81/71/75 82/72/76
f 46/49/77 45/50/78 78/51/79 77/52/80
f 47/70/81 46/73/82 48/74/83 49/75/84
f 49/75/84 48/74/83 50/76/85 51/77/86
f 51/77/86 50/76/85 53/78/87 52/79/88
f 52/79/89 54/80/90 84/81/91 83/82/92
f 54/113/93 53/114/94 79/115/95 80/116/96
f 55/53/97 57/54/98 89/55/99 90/56/100
f 56/83/101 55/84/102 86/85/103 85/86/104
f 57/87/105 56/83/106 58/88/107 59/89/108
f 59/89/108 58/88/107 60/90/109 61/91/110
f 61/91/110 60/90/109 63/92/111 62/93/112
f 62/117/113 64/118/114 92/119/115 91/120/116
f 64/94/117 63/92/118 87/95/119 88/96/120
f 66/11/36 65/10/35 69/22/56 70/21/55
f 67/18/48 68/17/47 72/32/72 71/31/71
f 74/48/52 73/47/51 77/52/80 78/51/79
f 75/112/68 76/111/67 80/116/96 79/115/95
f 82/72/76 81/71/75 85/86/104 86/85/103
f 83/82/92 84/81/91 88/96/120 87/95/119
f 90/56/100 89/55/99 93/44/28 94/43/27
f 91/120/116 92/119/115 96/108/44 95/107/43
f 26/5/121 28/8/122 1/1/1 65/10/123
f 28/8/122 30/13/124 2/2/2 1/1/1
f 30/13/124 33/15/125 67/18/126 2/2/2
f 65/10/123 1/1/1 3/4/4 69/22/127
f 2/2/2 67/18/126 71/31/128 4/3/3
f 69/22/127 3/4/4 38/24/129 36/19/130
f 3/4/4 4/3/3 40/26/131 38/24/129
f 4/3/3 71/31/128 43/28/132 40/26/131
f 37/133/133 39/134/134 5/129/5 73/135/135
f 39/134/134 41/136/136 6/130/6 5/129/5
f 41/136/136 42/137/137 75/138/138 6/130/6
f 73/135/135 5/129/5 7/132/8 77/139/139
f 6/130/6 75/138/138 79/140/140 8/131/7
f 77/139/139 7/132/8 48/141/141 46/142/142
f 7/132/8 8/131/7 50/143/143 48/141/141
f 8/131/7 79/140/140 53/144/144 50/143/143
f 47/70/145 49/75/146 9/65/9 81/71/147
f 49/75/146 51/77/148 10/66/10 9/65/9
f 51/77/148 52/79/149 83/82/150 10/66/10
f 81/71/147 9/65/9 11/68/12 85/86/151
f 10/66/10 83/82/150 87/95/152 12/67/11
f 85/86/151 11/68/12 58/88/153 56/83/154
f 11/68/12 12/67/11 60/90/155 58/88/153
f 12/67/11 87/95/152 63/92/156 60/90/155
f 57/153/157 59/154/158 13/149/13 89/155/159
f 59/154/158 61/156/160 14/150/14 13/149/13
f 61/156/160 62/157/161 91/158/162 14/150/14
f 89/155/159 13/149/13 15/152/16 93/159/163
f 14/150/14 91/158/162 95/160/164 16/151/15
f 93/159/163 15/152/16 29/161/165 25/162/166
f 15/152/16 16/151/15 31/163/167 29/161/165
f 16/151/15 95/160/164 34/164/168 31/163/167
f 92/119/169 64/118/170 88/121/171 17/102/18
f 96/108/172 92/119/169 17/102/18 18/101/17
f 32/105/173 96/108/172 18/101/17 68/122/174
f 17/102/18 88/121/171 84/123/175 19/103/19
f 68/122/174 18/101/17 20/104/20 72/124/176
f 19/103/19 84/123/175 54/113/177 80/116/178
f 20/104/20 19/103/19 80/116/178 76/111/179
f 72/124/176 20/104/20 76/111/179 44/110/180
f 55/53/181 90/56/182 21/37/21 86/57/183
f 90/56/182 94/43/184 22/38/22 21/37/21
f 94/43/184 27/42/185 66/58/186 22/38/22
f 86/57/183 21/37/21 23/40/24 82/59/187
f 22/38/22 66/58/186 70/60/188 24/39/23
f 82/59/187 23/40/24 78/51/189 45/50/190
f 23/40/24 24/39/23 74/48/191 78/51/189
f 24/39/23 70/60/188 35/45/192 74/48/191
f 25/6/193 26/5/194 27/9/195
f 32/16/196 33/15/197 34/14/198
f 35/20/199 36/19/200 37/23/201
f 42/29/202 43/28/203 44/30/204
f 45/69/205 46/73/206 47/70/207
f 52/79/208 53/78/209 54/80/210
f 55/84/211 56/83/212 57/87/213
f 62/93/214 63/92/215 64/94/216
